Data/glycerin/100/t2/glyrcerin100_t2.CSV

Model,TBS2104
Firmware Version,v1.26.0

Point Format,Y
Horizontal Units,S
Horizontal Scale,0.01
Sample Interval,8e-05
Filter Frequency,1e+08
Record Length,2000
Gating,0.0% to 100.0%
Probe Attenuation,10
Vertical Units,V
Vertical Offset,0
Vertical Scale,5
Label,
TIME,CH1
-2.7120e-02,1.05957
-2.7040e-02,1.06738
-2.6960e-02,1.0791
-2.6880e-02,1.10645
-2.6800e-02,1.03711
-2.6720e-02,1.12109
-2.6640e-02,1.07422
-2.6560e-02,1.08105
-2.6480e-02,1.12012
-2.6400e-02,1.00781
-2.6320e-02,1.35937
-2.6240e-02,1.72852
-2.6160e-02,1.91602
-2.6080e-02,1.57031
-2.6000e-02,1.37988
-2.5920e-02,1.5459
-2.5840e-02,1.625
-2.5760e-02,1.61523
-2.5680e-02,1.62988
-2.5600e-02,1.61133
-2.5520e-02,1.59473
-2.5440e-02,1.56738
-2.5360e-02,1.4502
-2.5280e-02,1.43652
-2.5200e-02,1.35937
-2.5120e-02,1.33789
-2.5040e-02,1.16113
-2.4960e-02,1.11816
-2.4880e-02,1.08496
-2.4800e-02,0.947265
-2.4720e-02,1.0332
-2.4640e-02,1.08594
-2.4560e-02,1.25781
-2.4480e-02,1.36035
-2.4400e-02,1.53906
-2.4320e-02,1.59277
-2.4240e-02,1.3916
-2.4160e-02,1.21777
-2.4080e-02,0.993164
-2.4000e-02,0.947265
-2.3920e-02,1.01367
-2.3840e-02,0.956054
-2.3760e-02,0.966797
-2.3680e-02,0.979492
-2.3600e-02,0.991211
-2.3520e-02,1.0752
-2.3440e-02,1.11523
-2.3360e-02,1.03516
-2.3280e-02,1.10352
-2.3200e-02,1.06738
-2.3120e-02,1.10742
-2.3040e-02,1.04785
-2.2960e-02,1.0918
-2.2880e-02,1.14551
-2.2800e-02,1.03027
-2.2720e-02,1.08496
-2.2640e-02,1.03125
-2.2560e-02,1.37305
-2.2480e-02,1.64551
-2.2400e-02,1.91602
-2.2320e-02,1.56152
-2.2240e-02,1.39062
-2.2160e-02,1.52246
-2.2080e-02,1.65234
-2.2000e-02,1.65137
-2.1920e-02,1.62012
-2.1840e-02,1.63379
-2.1760e-02,1.58105
-2.1680e-02,1.5459
-2.1600e-02,1.52051
-2.1520e-02,1.42578
-2.1440e-02,1.33691
-2.1360e-02,1.29785
-2.1280e-02,1.14941
-2.1200e-02,1.1084
-2.1120e-02,1.09375
-2.1040e-02,1.04395
-2.0960e-02,1.0498
-2.0880e-02,1.01855
-2.0800e-02,1.15234
-2.0720e-02,1.30078
-2.0640e-02,1.49902
-2.0560e-02,1.55762
-2.0480e-02,1.44043
-2.0400e-02,1.20898
-2.0320e-02,0.995117
-2.0240e-02,0.919922
-2.0160e-02,0.895508
-2.0080e-02,0.899414
-2.0000e-02,1.00684
-1.9920e-02,1.08105
-1.9840e-02,1.07812
-1.9760e-02,1.06348
-1.9680e-02,1.07227
-1.9600e-02,1.21484
-1.9520e-02,1.08496
-1.9440e-02,1.05664
-1.9360e-02,1.04297
-1.9280e-02,1.02051
-1.9200e-02,1.02051
-1.9120e-02,1.06738
-1.9040e-02,1.05469
-1.8960e-02,1.10059
-1.8880e-02,1.0332
-1.8800e-02,1.37988
-1.8720e-02,1.65625
-1.8640e-02,1.88574
-1.8560e-02,1.49121
-1.8480e-02,1.35352
-1.8400e-02,1.46484
-1.8320e-02,1.66602
-1.8240e-02,1.68555
-1.8160e-02,1.61523
-1.8080e-02,1.62695
-1.8000e-02,1.61523
-1.7920e-02,1.51953
-1.7840e-02,1.48828
-1.7760e-02,1.38867
-1.7680e-02,1.28613
-1.7600e-02,1.23242
-1.7520e-02,1.21484
-1.7440e-02,1.06445
-1.7360e-02,1.05664
-1.7280e-02,1.10937
-1.7200e-02,0.958008
-1.7120e-02,1.07617
-1.7040e-02,1.14355
-1.6960e-02,1.22559
-1.6880e-02,1.37109
-1.6800e-02,1.32715
-1.6720e-02,1.33789
-1.6640e-02,1.07422
-1.6560e-02,0.964844
-1.6480e-02,0.930664
-1.6400e-02,0.943359
-1.6320e-02,1.00879
-1.6240e-02,1.03809
-1.6160e-02,1.05273
-1.6080e-02,1.00293
-1.6000e-02,1.07422
-1.5920e-02,1.06641
-1.5840e-02,1.17773
-1.5760e-02,1.10742
-1.5680e-02,1.0498
-1.5600e-02,1.14453
-1.5520e-02,1.05371
-1.5440e-02,1.05469
-1.5360e-02,1.08301
-1.5280e-02,1.0918
-1.5200e-02,1.08008
-1.5120e-02,1.09277
-1.5040e-02,1.34277
-1.4960e-02,1.74316
-1.4880e-02,1.91309
-1.4800e-02,1.49707
-1.4720e-02,1.38574
-1.4640e-02,1.60059
-1.4560e-02,1.65332
-1.4480e-02,1.69336
-1.4400e-02,1.64062
-1.4320e-02,1.65137
-1.4240e-02,1.61816
-1.4160e-02,1.46387
-1.4080e-02,1.4502
-1.4000e-02,1.36133
-1.3920e-02,1.3291
-1.3840e-02,1.19824
-1.3760e-02,1.16309
-1.3680e-02,1.16895
-1.3600e-02,1.07129
-1.3520e-02,0.998047
-1.3440e-02,1.10352
-1.3360e-02,0.940429
-1.3280e-02,1.04785
-1.3200e-02,1.1582
-1.3120e-02,1.28125
-1.3040e-02,1.36133
-1.2960e-02,1.24414
-1.2880e-02,1.00488
-1.2800e-02,0.879883
-1.2720e-02,0.893554
-1.2640e-02,0.899414
-1.2560e-02,0.984375
-1.2480e-02,0.984375
-1.2400e-02,0.969726
-1.2320e-02,1.0498
-1.2240e-02,1.08691
-1.2160e-02,1.12695
-1.2080e-02,1.08301
-1.2000e-02,1.08887
-1.1920e-02,1.08789
-1.1840e-02,1.10254
-1.1760e-02,1.03809
-1.1680e-02,1.09863
-1.1600e-02,1.08301
-1.1520e-02,1.04883
-1.1440e-02,1.07617
-1.1360e-02,1.08789
-1.1280e-02,1.44727
-1.1200e-02,1.64551
-1.1120e-02,2.06348
-1.1040e-02,1.58594
-1.0960e-02,1.05273
-1.0880e-02,0.978515
-1.0800e-02,1.08203
-1.0720e-02,1.16797
-1.0640e-02,1.33789
-1.0560e-02,1.27344
-1.0480e-02,1.35742
-1.0400e-02,1.34766
-1.0320e-02,1.42187
-1.0240e-02,1.35547
-1.0160e-02,1.31836
-1.0080e-02,1.30664
-1.0000e-02,1.27734
-9.9200e-03,1.2041
-9.8400e-03,1.16895
-9.7600e-03,1.18164
-9.6800e-03,1.09668
-9.6000e-03,1.11035
-9.5200e-03,1.03418
-9.4400e-03,1.0498
-9.3600e-03,0.982422
-9.2800e-03,0.874023
-9.2000e-03,0.856445
-9.1200e-03,0.922851
-9.0400e-03,0.884765
-8.9600e-03,0.897461
-8.8800e-03,0.891601
-8.8000e-03,0.889648
-8.7200e-03,0.886719
-8.6400e-03,0.851562
-8.5600e-03,0.884765
-8.4800e-03,0.844726
-8.4000e-03,0.834961
-8.3200e-03,0.924804
-8.2400e-03,0.895508
-8.1600e-03,0.833984
-8.0800e-03,0.871094
-8.0000e-03,0.861328
-7.9200e-03,0.834961
-7.8400e-03,0.799804
-7.7600e-03,0.867187
-7.6800e-03,0.853515
-7.6000e-03,0.833008
-7.5200e-03,0.855469
-7.4400e-03,0.853515
-7.3600e-03,0.83789
-7.2800e-03,0.786133
-7.2000e-03,0.890625
-7.1200e-03,0.86914
-7.0400e-03,0.853515
-6.9600e-03,0.835937
-6.8800e-03,0.833984
-6.8000e-03,0.867187
-6.7200e-03,0.819336
-6.6400e-03,0.790039
-6.5600e-03,0.839844
-6.4800e-03,0.853515
-6.4000e-03,0.87207
-6.3200e-03,0.878906
-6.2400e-03,0.923828
-6.1600e-03,0.868164
-6.0800e-03,0.863281
-6.0000e-03,0.882812
-5.9200e-03,0.786133
-5.8400e-03,0.925781
-5.7600e-03,0.862304
-5.6800e-03,0.86914
-5.6000e-03,0.824219
-5.5200e-03,0.90332
-5.4400e-03,0.851562
-5.3600e-03,0.798828
-5.2800e-03,0.83789
-5.2000e-03,0.880859
-5.1200e-03,0.875976
-5.0400e-03,0.852539
-4.9600e-03,0.898437
-4.8800e-03,0.944336
-4.8000e-03,0.90625
-4.7200e-03,0.899414
-4.6400e-03,0.881836
-4.5600e-03,0.90625
-4.4800e-03,0.86914
-4.4000e-03,0.84082
-4.3200e-03,0.833984
-4.2400e-03,0.858398
-4.1600e-03,0.926758
-4.0800e-03,0.860351
-4.0000e-03,0.877929
-3.9200e-03,0.846679
-3.8400e-03,0.880859
-3.7600e-03,0.838867
-3.6800e-03,0.819336
-3.6000e-03,0.911133
-3.5200e-03,0.882812
-3.4400e-03,0.875
-3.3600e-03,0.925781
-3.2800e-03,0.861328
-3.2000e-03,0.907226
-3.1200e-03,0.904297
-3.0400e-03,0.813476
-2.9600e-03,0.880859
-2.8800e-03,0.870117
-2.8000e-03,0.902344
-2.7200e-03,0.838867
-2.6400e-03,0.913086
-2.5600e-03,0.93164
-2.4800e-03,0.890625
-2.4000e-03,0.829101
-2.3200e-03,0.878906
-2.2400e-03,0.858398
-2.1600e-03,0.899414
-2.0800e-03,0.860351
-2.0000e-03,0.848633
-1.9200e-03,0.915039
-1.8400e-03,0.853515
-1.7600e-03,0.875
-1.6800e-03,0.901367
-1.6000e-03,0.896484
-1.5200e-03,0.936523
-1.4400e-03,0.877929
-1.3600e-03,0.857422
-1.2800e-03,0.878906
-1.2000e-03,0.83789
-1.1200e-03,0.9375
-1.0400e-03,0.805664
-9.6000e-04,0.833008
-8.8000e-04,0.912109
-8.0000e-04,0.878906
-7.2000e-04,0.888672
-6.4000e-04,0.910156
-5.6000e-04,0.855469
-4.8000e-04,0.835937
-4.0000e-04,0.855469
-3.2000e-04,1.91602
-2.4000e-04,22.0059
-1.6000e-04,15.7871
-8.0000e-05,12.3604
8.1315e-17,10.4277
8.0000e-05,8.71777
1.6000e-04,7.20801
2.4000e-04,5.8457
3.2000e-04,4.75586
4.0000e-04,3.83301
4.8000e-04,2.93848
5.6000e-04,2.28418
6.4000e-04,1.72754
7.2000e-04,1.41602
8.0000e-04,1.31836
8.8000e-04,1.31836
9.6000e-04,1.39648
1.0400e-03,1.42676
1.1200e-03,1.38477
1.2000e-03,1.38477
1.2800e-03,1.27734
1.3600e-03,1.27832
1.4400e-03,1.11523
1.5200e-03,1.08301
1.6000e-03,2.61035
1.6800e-03,1.38574
1.7600e-03,1.58105
1.8400e-03,1.43262
1.9200e-03,1.28613
2.0000e-03,1.17773
2.0800e-03,1.02246
2.1600e-03,0.890625
2.2400e-03,0.959961
2.3200e-03,1.24609
2.4000e-03,1.64453
2.4800e-03,2.10352
2.5600e-03,2.81543
2.6400e-03,3.40625
2.7200e-03,4.2041
2.8000e-03,5.08398
2.8800e-03,6.00293
2.9600e-03,6.93164
3.0400e-03,8.21289
3.1200e-03,9.4375
3.2000e-03,10.9932
3.2800e-03,13.1846
3.3600e-03,17.3428
3.4400e-03,19.9863
3.5200e-03,16.7207
3.6000e-03,12.7207
3.6800e-03,10.373
3.7600e-03,8.75586
3.8400e-03,7.34375
3.9200e-03,6.02246
4.0000e-03,4.96387
4.0800e-03,4.0332
4.1600e-03,3.27051
4.2400e-03,2.58789
4.3200e-03,1.97754
4.4000e-03,1.56445
4.4800e-03,1.31738
4.5600e-03,1.23242
4.6400e-03,1.18555
4.7200e-03,1.17676
4.8000e-03,1.28711
4.8800e-03,1.22656
4.9600e-03,1.24902
5.0400e-03,1.25488
5.1200e-03,1.12988
5.2000e-03,1.05566
5.2800e-03,1.00488
5.3600e-03,2.7793
5.4400e-03,1.46191
5.5200e-03,1.72754
5.6000e-03,1.88867
5.6800e-03,1.9502
5.7600e-03,2.04883
5.8400e-03,2.03125
5.9200e-03,2.09277
6.0000e-03,2.07812
6.0800e-03,2.14453
6.1600e-03,2.18359
6.2400e-03,2.4375
6.3200e-03,2.69727
6.4000e-03,3.1377
6.4800e-03,3.65234
6.5600e-03,4.22559
6.6400e-03,5.06934
6.7200e-03,5.92578
6.8000e-03,6.86133
6.8800e-03,7.9834
6.9600e-03,9.23047
7.0400e-03,10.8604
7.1200e-03,13.7656
7.2000e-03,17.0459
7.2800e-03,17.2334
7.3600e-03,12.7998
7.4400e-03,10.1494
7.5200e-03,8.45703
7.6000e-03,7.07812
7.6800e-03,5.83398
7.7600e-03,4.7832
7.8400e-03,3.88379
7.9200e-03,3.07324
8.0000e-03,2.41113
8.0800e-03,1.75586
8.1600e-03,1.30762
8.2400e-03,0.992187
8.3200e-03,0.902344
8.4000e-03,0.953125
8.4800e-03,0.986328
8.5600e-03,1.12207
8.6400e-03,1.12207
8.7200e-03,1.22559
8.8000e-03,1.39648
8.8800e-03,1.41699
8.9600e-03,1.40918
9.0400e-03,1.52148
9.1200e-03,2.66016
9.2000e-03,1.19922
9.2800e-03,1.28613
9.3600e-03,1.15137
9.4400e-03,0.982422
9.5200e-03,0.909179
9.6000e-03,0.850586
9.6800e-03,0.849609
9.7600e-03,0.916992
9.8400e-03,1.10547
9.9200e-03,1.40918
1.0000e-02,1.80078
1.0080e-02,2.21484
1.0160e-02,2.7168
1.0240e-02,3.32324
1.0320e-02,3.95996
1.0400e-02,4.77441
1.0480e-02,5.5625
1.0560e-02,6.4873
1.0640e-02,7.62402
1.0720e-02,8.93945
1.0800e-02,10.8242
1.0880e-02,13.9854
1.0960e-02,15.9121
1.1040e-02,14.0986
1.1120e-02,10.3916
1.1200e-02,8.52832
1.1280e-02,7.15723
1.1360e-02,5.91016
1.1440e-02,4.9541
1.1520e-02,4.03516
1.1600e-02,3.34961
1.1680e-02,2.65137
1.1760e-02,2.23633
1.1840e-02,1.74316
1.1920e-02,1.47656
1.2000e-02,1.39648
1.2080e-02,1.33203
1.2160e-02,1.31934
1.2240e-02,1.29785
1.2320e-02,1.26367
1.2400e-02,1.27344
1.2480e-02,1.22168
1.2560e-02,1.18164
1.2640e-02,0.96582
1.2720e-02,1.00293
1.2800e-02,1.31738
1.2880e-02,2.64062
1.2960e-02,1.41113
1.3040e-02,1.18652
1.3120e-02,1.44531
1.3200e-02,1.50293
1.3280e-02,1.54687
1.3360e-02,1.5752
1.3440e-02,1.58398
1.3520e-02,1.66992
1.3600e-02,1.71973
1.3680e-02,1.85059
1.3760e-02,2.06934
1.3840e-02,2.33398
1.3920e-02,2.63672
1.4000e-02,3.1748
1.4080e-02,3.65039
1.4160e-02,4.29785
1.4240e-02,4.9668
1.4320e-02,5.80176
1.4400e-02,6.72852
1.4480e-02,7.7793
1.4560e-02,9.03027
1.4640e-02,11.668
1.4720e-02,14.1865
1.4800e-02,13.8271
1.4880e-02,10.584
1.4960e-02,8.32324
1.5040e-02,6.92187
1.5120e-02,5.77344
1.5200e-02,4.70215
1.5280e-02,3.87207
1.5360e-02,3.14062
1.5440e-02,2.60156
1.5520e-02,1.9668
1.5600e-02,1.50293
1.5680e-02,1.18457
1.5760e-02,1.00293
1.5840e-02,0.96875
1.5920e-02,0.956054
1.6000e-02,0.925781
1.6080e-02,0.958984
1.6160e-02,0.974609
1.6240e-02,1.03906
1.6320e-02,1.15332
1.6400e-02,1.20801
1.6480e-02,1.09668
1.6560e-02,1.33887
1.6640e-02,2.45117
1.6720e-02,1.0752
1.6800e-02,0.865234
1.6880e-02,0.830078
1.6960e-02,0.866211
1.7040e-02,0.901367
1.7120e-02,0.928711
1.7200e-02,1.03906
1.7280e-02,1.16504
1.7360e-02,1.25781
1.7440e-02,1.38574
1.7520e-02,1.63281
1.7600e-02,1.92187
1.7680e-02,2.3623
1.7760e-02,2.69727
1.7840e-02,3.27344
1.7920e-02,3.90625
1.8000e-02,4.5
1.8080e-02,5.27539
1.8160e-02,6.08008
1.8240e-02,7.30273
1.8320e-02,8.89258
1.8400e-02,11.3613
1.8480e-02,13
1.8560e-02,11.8418
1.8640e-02,8.68457
1.8720e-02,6.8916
1.8800e-02,5.87012
1.8880e-02,4.92383
1.8960e-02,4.10742
1.9040e-02,3.34082
1.9120e-02,2.72852
1.9200e-02,2.19531
1.9280e-02,1.79492
1.9360e-02,1.54395
1.9440e-02,1.29297
1.9520e-02,1.26465
1.9600e-02,1.15332
1.9680e-02,1.20801
1.9760e-02,1.25586
1.9840e-02,1.07227
1.9920e-02,1.09473
2.0000e-02,1.04297
2.0080e-02,0.960937
2.0160e-02,0.842773
2.0240e-02,0.940429
2.0320e-02,1.24316
2.0400e-02,2.4082
2.0480e-02,1.20898
2.0560e-02,1.06836
2.0640e-02,1.48047
2.0720e-02,1.4834
2.0800e-02,1.43066
2.0880e-02,1.51172
2.0960e-02,1.45703
2.1040e-02,1.50488
2.1120e-02,1.58887
2.1200e-02,1.72656
2.1280e-02,1.86523
2.1360e-02,2.05566
2.1440e-02,2.3418
2.1520e-02,2.70996
2.1600e-02,3.12207
2.1680e-02,3.58105
2.1760e-02,4.21387
2.1840e-02,4.87109
2.1920e-02,5.625
2.2000e-02,6.41602
2.2080e-02,7.57715
2.2160e-02,9.92773
2.2240e-02,11.7832
2.2320e-02,11.2891
2.2400e-02,8.64941
2.2480e-02,6.90137
2.2560e-02,5.58008
2.2640e-02,4.65332
2.2720e-02,3.90625
2.2800e-02,3.24902
2.2880e-02,2.55566
2.2960e-02,2.02832
2.3040e-02,1.78027
2.3120e-02,1.34863
2.3200e-02,1.18555
2.3280e-02,1.08203
2.3360e-02,1.02734
2.3440e-02,0.960937
2.3520e-02,0.960937
2.3600e-02,0.945312
2.3680e-02,0.86914
2.3760e-02,0.990234
2.3840e-02,0.992187
2.3920e-02,1.04687
2.4000e-02,1.07715
2.4080e-02,1.26953
2.4160e-02,2.38965
2.4240e-02,1.06055
2.4320e-02,0.833984
2.4400e-02,0.889648
2.4480e-02,0.971679
2.4560e-02,0.96582
2.4640e-02,1.10156
2.4720e-02,1.24121
2.4800e-02,1.25781
2.4880e-02,1.36133
2.4960e-02,1.34961
2.5040e-02,1.56348
2.5120e-02,1.7168
2.5200e-02,2.02832
2.5280e-02,2.35254
2.5360e-02,2.7168
2.5440e-02,3.30762
2.5520e-02,3.68066
2.5600e-02,4.3916
2.5680e-02,5.0459
2.5760e-02,6.12207
2.5840e-02,7.27832
2.5920e-02,9.31348
2.6000e-02,10.7275
2.6080e-02,9.86719
2.6160e-02,7.20605
2.6240e-02,5.69336
2.6320e-02,4.76465
2.6400e-02,4.03223
2.6480e-02,3.41699
2.6560e-02,2.76367
2.6640e-02,2.24414
2.6720e-02,1.87402
2.6800e-02,1.49023
2.6880e-02,1.28711
2.6960e-02,1.16406
2.7040e-02,1.1875
2.7120e-02,1.11426
2.7200e-02,1.0791
2.7280e-02,1.1084
2.7360e-02,1.19238
2.7440e-02,1.03711
2.7520e-02,1.02246
2.7600e-02,0.948242
2.7680e-02,0.831054
2.7760e-02,0.978515
2.7840e-02,1.32227
2.7920e-02,2.49707
2.8000e-02,1.06738
2.8080e-02,1.04492
2.8160e-02,1.34277
2.8240e-02,1.53906
2.8320e-02,1.47461
2.8400e-02,1.54687
2.8480e-02,1.54199
2.8560e-02,1.58496
2.8640e-02,1.45703
2.8720e-02,1.60156
2.8800e-02,1.59082
2.8880e-02,1.79883
2.8960e-02,1.97949
2.9040e-02,2.26562
2.9120e-02,2.625
2.9200e-02,3.05078
2.9280e-02,3.55176
2.9360e-02,4.0127
2.9440e-02,4.60645
2.9520e-02,5.1875
2.9600e-02,6.23145
2.9680e-02,8.27832
2.9760e-02,9.85547
2.9840e-02,9.26172
2.9920e-02,7.07227
3.0000e-02,5.6123
3.0080e-02,4.6543
3.0160e-02,3.83105
3.0240e-02,3.1875
3.0320e-02,2.63477
3.0400e-02,2.10645
3.0480e-02,1.70898
3.0560e-02,1.39746
3.0640e-02,1.27344
3.0720e-02,1.12012
3.0800e-02,1.04785
3.0880e-02,1.04199
3.0960e-02,0.96289
3.1040e-02,0.914062
3.1120e-02,0.851562
3.1200e-02,0.813476
3.1280e-02,0.836914
3.1360e-02,0.851562
3.1440e-02,0.917969
3.1520e-02,1.03418
3.1600e-02,1.25293
3.1680e-02,2.36816
3.1760e-02,1.09082
3.1840e-02,0.929687
3.1920e-02,1.0127
3.2000e-02,0.999023
3.2080e-02,1.09375
3.2160e-02,1.16016
3.2240e-02,1.25684
3.2320e-02,1.41504
3.2400e-02,1.41406
3.2480e-02,1.42285
3.2560e-02,1.56055
3.2640e-02,1.65918
3.2720e-02,1.80371
3.2800e-02,2.03711
3.2880e-02,2.38965
3.2960e-02,2.72754
3.3040e-02,3.1377
3.3120e-02,3.64746
3.3200e-02,4.25586
3.3280e-02,5.09961
3.3360e-02,6.05859
3.3440e-02,7.7207
3.3520e-02,8.94043
3.3600e-02,8.30078
3.3680e-02,5.98828
3.3760e-02,4.74707
3.3840e-02,3.96777
3.3920e-02,3.31055
3.4000e-02,2.84277
3.4080e-02,2.2666
3.4160e-02,1.90234
3.4240e-02,1.55664
3.4320e-02,1.3125
3.4400e-02,1.21191
3.4480e-02,1.13281
3.4560e-02,1.14844
3.4640e-02,1.21582
3.4720e-02,1.04785
3.4800e-02,1.11621
3.4880e-02,1.12305
3.4960e-02,1.09277
3.5040e-02,1.00879
3.5120e-02,0.889648
3.5200e-02,0.797851
3.5280e-02,0.845703
3.5360e-02,1.38867
3.5440e-02,2.50586
3.5520e-02,1.05664
3.5600e-02,1.0752
3.5680e-02,1.33594
3.5760e-02,1.47852
3.5840e-02,1.52832
3.5920e-02,1.49609
3.6000e-02,1.47559
3.6080e-02,1.56641
3.6160e-02,1.55859
3.6240e-02,1.45996
3.6320e-02,1.59473
3.6400e-02,1.66016
3.6480e-02,1.77051
3.6560e-02,1.9502
3.6640e-02,2.15039
3.6720e-02,2.55371
3.6800e-02,2.94629
3.6880e-02,3.38867
3.6960e-02,3.82129
3.7040e-02,4.34375
3.7120e-02,5.24414
3.7200e-02,6.89453
3.7280e-02,8.15625
3.7360e-02,7.76855
3.7440e-02,5.78711
3.7520e-02,4.6416
3.7600e-02,3.74902
3.7680e-02,3.1543
3.7760e-02,2.63086
3.7840e-02,2.22559
3.7920e-02,1.74219
3.8000e-02,1.4502
3.8080e-02,1.26953
3.8160e-02,1.08105
3.8240e-02,1.08984
3.8320e-02,1.12793
3.8400e-02,0.985351
3.8480e-02,1.06934
3.8560e-02,0.96289
3.8640e-02,0.927734
3.8720e-02,0.883789
3.8800e-02,0.894531
3.8880e-02,0.798828
3.8960e-02,0.855469
3.9040e-02,1.03516
3.9120e-02,1.33594
3.9200e-02,2.46387
3.9280e-02,1.06445
3.9360e-02,0.954101
3.9440e-02,1.05762
3.9520e-02,1.14258
3.9600e-02,1.20996
3.9680e-02,1.22559
3.9760e-02,1.38086
3.9840e-02,1.39648
3.9920e-02,1.38184
4.0000e-02,1.41113
4.0080e-02,1.48437
4.0160e-02,1.50781
4.0240e-02,1.65332
4.0320e-02,1.7998
4.0400e-02,2.0127
4.0480e-02,2.36914
4.0560e-02,2.63281
4.0640e-02,3.02734
4.0720e-02,3.5752
4.0800e-02,4.25
4.0880e-02,4.95117
4.0960e-02,6.39258
4.1040e-02,7.39941
4.1120e-02,6.89648
4.1200e-02,4.97168
4.1280e-02,3.90039
4.1360e-02,3.24219
4.1440e-02,2.79199
4.1520e-02,2.30176
4.1600e-02,1.93066
4.1680e-02,1.54297
4.1760e-02,1.32129
4.1840e-02,1.22559
4.1920e-02,1.09766
4.2000e-02,1.11035
4.2080e-02,1.0752
4.2160e-02,1.04883
4.2240e-02,1.09863
4.2320e-02,1.0625
4.2400e-02,1.03809
4.2480e-02,1.08984
4.2560e-02,0.926758
4.2640e-02,0.926758
4.2720e-02,0.836914
4.2800e-02,0.832031
4.2880e-02,1.3916
4.2960e-02,2.59375
4.3040e-02,0.963867
4.3120e-02,1.0791
4.3200e-02,1.34668
4.3280e-02,1.45605
4.3360e-02,1.50391
4.3440e-02,1.52051
4.3520e-02,1.52148
4.3600e-02,1.47656
4.3680e-02,1.5
4.3760e-02,1.51367
4.3840e-02,1.5166
4.3920e-02,1.58008
4.4000e-02,1.66992
4.4080e-02,1.67578
4.4160e-02,1.88184
4.4240e-02,2.12988
4.4320e-02,2.58887
4.4400e-02,2.77246
4.4480e-02,3.18066
4.4560e-02,3.67187
4.4640e-02,4.41797
4.4720e-02,5.7832
4.4800e-02,6.80176
4.4880e-02,6.31934
4.4960e-02,4.78418
4.5040e-02,3.81738
4.5120e-02,3.18164
4.5200e-02,2.59082
4.5280e-02,2.09863
4.5360e-02,1.72754
4.5440e-02,1.48145
4.5520e-02,1.21191
4.5600e-02,1.125
4.5680e-02,1.0791
4.5760e-02,1.07422
4.5840e-02,1.05078
4.5920e-02,1.03223
4.6000e-02,1.07422
4.6080e-02,0.953125
4.6160e-02,0.90039
4.6240e-02,0.856445
4.6320e-02,0.796875
4.6400e-02,0.822265
4.6480e-02,0.942383
4.6560e-02,0.993164
4.6640e-02,1.43555
4.6720e-02,2.54102
4.6800e-02,0.961914
4.6880e-02,1.03516
4.6960e-02,1.21289
4.7040e-02,1.26465
4.7120e-02,1.34277
4.7200e-02,1.3584
4.7280e-02,1.44141
4.7360e-02,1.4668
4.7440e-02,1.46289
4.7520e-02,1.46387
4.7600e-02,1.5127
4.7680e-02,1.38477
4.7760e-02,1.44629
4.7840e-02,1.55859
4.7920e-02,1.85547
4.8000e-02,2.06738
4.8080e-02,2.27441
4.8160e-02,2.56445
4.8240e-02,3.02148
4.8320e-02,3.46387
4.8400e-02,4.15625
4.8480e-02,5.25586
4.8560e-02,6.19824
4.8640e-02,5.71387
4.8720e-02,4.16504
4.8800e-02,3.22656
4.8880e-02,2.7334
4.8960e-02,2.27344
4.9040e-02,1.80176
4.9120e-02,1.6582
4.9200e-02,1.375
4.9280e-02,1.19043
4.9360e-02,1.10156
4.9440e-02,1.11621
4.9520e-02,1.19336
4.9600e-02,1.12402
4.9680e-02,1.09277
4.9760e-02,1.04492
4.9840e-02,1.12207
4.9920e-02,1.07812
5.0000e-02,1.04883
5.0080e-02,0.989258
5.0160e-02,0.983398
5.0240e-02,0.881836
5.0320e-02,0.800781
5.0400e-02,1.4375
5.0480e-02,2.66504
5.0560e-02,0.989258
5.0640e-02,1.13672
5.0720e-02,1.32227
5.0800e-02,1.47754
5.0880e-02,1.52246
5.0960e-02,1.57324
5.1040e-02,1.52734
5.1120e-02,1.58398
5.1200e-02,1.46777
5.1280e-02,1.55859
5.1360e-02,1.46582
5.1440e-02,1.49023
5.1520e-02,1.54785
5.1600e-02,1.60937
5.1680e-02,1.67773
5.1760e-02,1.87109
5.1840e-02,2.11719
5.1920e-02,2.40039
5.2000e-02,2.61719
5.2080e-02,3.06738
5.2160e-02,3.67187
5.2240e-02,4.84473
5.2320e-02,5.7002
5.2400e-02,5.18555
5.2480e-02,3.93945
5.2560e-02,3.18555
5.2640e-02,2.56543
5.2720e-02,2.18066
5.2800e-02,1.71875
5.2880e-02,1.47656
5.2960e-02,1.28711
5.3040e-02,1.16699
5.3120e-02,1.12793
5.3200e-02,1.09766
5.3280e-02,1.07422
5.3360e-02,1.14062
5.3440e-02,1.00098
5.3520e-02,1.06543
5.3600e-02,0.917969
5.3680e-02,0.894531
5.3760e-02,0.899414
5.3840e-02,0.823242
5.3920e-02,0.863281
5.4000e-02,0.891601
5.4080e-02,1.07324
