Data/mineral_oil/mineral_t2.CSV

Model,TBS2104
Firmware Version,v1.26.0
,
Point Format,Y
Horizontal Units,S
Horizontal Scale,0.01
Sample Interval,8.00E-05
Filter Frequency,1.00E+08
Record Length,2000
Gating,0.0% to 100.0%
Probe Attenuation,10
Vertical Units,V
Vertical Offset,0
Vertical Scale,20
Label,
TIME,CH1
-4.00E-04,2.24609
-3.20E-04,3.16797
-2.40E-04,3.79688
-1.60E-04,39.5469
-8.00E-05,35.3398
-1.42E-15,29.9141
8.00E-05,27.1719
1.60E-04,24.7969
2.40E-04,23.6289
3.20E-04,23.9922
4.00E-04,23.0859
4.80E-04,18.668
5.60E-04,15.0664
6.40E-04,12.0781
7.20E-04,11.5117
8.00E-04,12.9492
8.80E-04,14.0547
9.60E-04,15.0234
1.04E-03,15.8359
1.12E-03,17.1367
1.20E-03,18.6133
1.28E-03,21.5273
1.36E-03,24.1758
1.44E-03,29.9766
1.52E-03,39.6563
1.60E-03,41.082
1.68E-03,32.6875
1.76E-03,27.5742
1.84E-03,24.8516
1.92E-03,23.1992
2.00E-03,21.8906
2.08E-03,22.2773
2.16E-03,21.5391
2.24E-03,17.4883
2.32E-03,14.1953
2.40E-03,11.3203
2.48E-03,11.0352
2.56E-03,12.918
2.64E-03,13.0898
2.72E-03,13.7148
2.80E-03,14.6211
2.88E-03,15.9688
2.96E-03,17.1992
3.04E-03,19.7773
3.12E-03,22.457
3.20E-03,28.0938
3.28E-03,36.7305
3.36E-03,37.5781
3.44E-03,29.5195
3.52E-03,25.4688
3.60E-03,22.9375
3.68E-03,21.3438
3.76E-03,20.5039
3.84E-03,20.7617
3.92E-03,20.2422
4.00E-03,16.1641
4.08E-03,12.9883
4.16E-03,10.5352
4.24E-03,10.1758
4.32E-03,10.2539
4.40E-03,11.6914
4.48E-03,12.3672
4.56E-03,13.3789
4.64E-03,14.3008
4.72E-03,15.668
4.80E-03,18.1172
4.88E-03,20.375
4.96E-03,25.1758
5.04E-03,33.543
5.12E-03,34.4492
5.20E-03,27.5703
5.28E-03,23.5898
5.36E-03,21.2734
5.44E-03,19.8516
5.52E-03,18.9219
5.60E-03,19.582
5.68E-03,18.8828
5.76E-03,15.1797
5.84E-03,13.0781
5.92E-03,10.2617
6.00E-03,9.96875
6.08E-03,11.2969
6.16E-03,11.2852
6.24E-03,11.8867
6.32E-03,12.6914
6.40E-03,13.3555
6.48E-03,14.6641
6.56E-03,16.8047
6.64E-03,18.9258
6.72E-03,22.7305
6.80E-03,29.4844
6.88E-03,29.5703
6.96E-03,22.457
7.04E-03,18.25
7.12E-03,15.5547
7.20E-03,13.3672
7.28E-03,11.5391
7.36E-03,9.79688
7.44E-03,8.21484
7.52E-03,6.94141
7.60E-03,5.16406
7.68E-03,4.28516
7.76E-03,4.53125
7.84E-03,5.38281
7.92E-03,6.98828
8.00E-03,8.50781
8.08E-03,9.95313
8.16E-03,11.4297
8.24E-03,12.9258
8.32E-03,14.7344
8.40E-03,16.8672
8.48E-03,20.125
8.56E-03,26.6758
8.64E-03,26.9531
8.72E-03,20.8203
8.80E-03,17.0469
8.88E-03,14.2305
8.96E-03,12.5781
9.04E-03,10.8789
9.12E-03,9.55469
9.20E-03,7.97656
9.28E-03,7.06641
9.36E-03,6.16016
9.44E-03,4.79688
9.52E-03,5.03516
9.60E-03,6.75781
9.68E-03,7.59766
9.76E-03,8.31641
9.84E-03,9.51563
9.92E-03,10.8125
1.00E-02,12.1211
1.01E-02,14.0078
1.02E-02,16.1523
1.02E-02,19.5898
1.03E-02,25
1.04E-02,25.4258
1.05E-02,19.3633
1.06E-02,15.8164
1.06E-02,13.5039
1.07E-02,11.6016
1.08E-02,9.92188
1.09E-02,8.39063
1.10E-02,7.15625
1.10E-02,5.71484
1.11E-02,4.08594
1.12E-02,3.25391
1.13E-02,3.84766
1.14E-02,4.1875
1.14E-02,5.82031
1.15E-02,7.24609
1.16E-02,8.51563
1.17E-02,9.64844
1.18E-02,10.9258
1.18E-02,12.5781
1.19E-02,14.6094
1.20E-02,17.7266
1.21E-02,23.1914
1.22E-02,23.5352
1.22E-02,18.207
1.23E-02,14.8828
1.24E-02,12.582
1.25E-02,10.9531
1.26E-02,9.49219
1.26E-02,8.19922
1.27E-02,6.87891
1.28E-02,6.34766
1.29E-02,5.46484
1.30E-02,4.24609
1.30E-02,4.60547
1.31E-02,6.01563
1.32E-02,6.69531
1.33E-02,7.42969
1.34E-02,8.30859
1.34E-02,9.43359
1.35E-02,10.6523
1.36E-02,12.1055
1.37E-02,13.9922
1.38E-02,16.9023
1.38E-02,21.7891
1.39E-02,22.1172
1.40E-02,16.9219
1.41E-02,13.7539
1.42E-02,11.6016
1.42E-02,10.125
1.43E-02,8.62891
1.44E-02,7.45313
1.45E-02,6.23047
1.46E-02,4.90625
1.46E-02,3.35938
1.47E-02,2.79688
1.48E-02,3.39453
1.49E-02,3.57031
1.50E-02,5.14844
1.50E-02,6.44141
1.51E-02,7.46875
1.52E-02,8.52344
1.53E-02,9.54688
1.54E-02,11.1406
1.54E-02,12.7578
1.55E-02,15.8164
1.56E-02,20.3906
1.57E-02,20.75
1.58E-02,16.1758
1.58E-02,13.168
1.59E-02,10.8555
1.60E-02,9.61719
1.61E-02,8.37891
1.62E-02,7.21875
1.62E-02,6.25781
1.63E-02,5.56641
1.64E-02,4.65625
1.65E-02,3.71875
1.66E-02,3.96484
1.66E-02,5.19922
1.67E-02,6.01563
1.68E-02,6.46484
1.69E-02,7.41797
1.70E-02,8.28125
1.70E-02,9.33984
1.71E-02,10.7031
1.72E-02,12.4063
1.73E-02,14.8672
1.74E-02,19.332
1.74E-02,19.5898
1.75E-02,15.0234
1.76E-02,12.0469
1.77E-02,10.4492
1.78E-02,9.15234
1.78E-02,7.72266
1.79E-02,6.78125
1.80E-02,5.83594
1.81E-02,4.43359
1.82E-02,3.19531
1.82E-02,2.53125
1.83E-02,3.00391
1.84E-02,3.24219
1.85E-02,4.65234
1.86E-02,5.91016
1.86E-02,6.86719
1.87E-02,7.80469
1.88E-02,8.70313
1.89E-02,9.94922
1.90E-02,11.5781
1.90E-02,14.0313
1.91E-02,18.1953
1.92E-02,18.6211
1.93E-02,14.4102
1.94E-02,11.6445
1.94E-02,9.89844
1.95E-02,8.77734
1.96E-02,7.60938
1.97E-02,6.51563
1.98E-02,5.69141
1.98E-02,4.85156
1.99E-02,4.09375
2.00E-02,3.26172
2.01E-02,3.68359
2.02E-02,4.42188
2.02E-02,5.09375
2.03E-02,5.61328
2.04E-02,6.46484
2.05E-02,7.52344
2.06E-02,8.38672
2.06E-02,9.41406
2.07E-02,10.9063
2.08E-02,13.2422
2.09E-02,17.3906
2.10E-02,17.6016
2.10E-02,13.4922
2.11E-02,11.0195
2.12E-02,9.39063
2.13E-02,8.12109
2.14E-02,7.29297
2.14E-02,6.12891
2.15E-02,5.21875
2.16E-02,3.9375
2.17E-02,2.78906
2.18E-02,2.24219
2.18E-02,2.98438
2.19E-02,2.94531
2.20E-02,4.42969
2.21E-02,5.37109
2.22E-02,6.44922
2.22E-02,7.17188
2.23E-02,7.64844
2.24E-02,9.08984
2.25E-02,10.3281
2.26E-02,12.6055
2.26E-02,16.5
2.27E-02,16.7734
2.28E-02,12.8203
2.29E-02,10.3867
2.30E-02,8.94141
2.30E-02,7.86328
2.31E-02,6.71484
2.32E-02,5.73047
2.33E-02,4.96875
2.34E-02,4.25781
2.34E-02,3.48438
2.35E-02,2.73828
2.36E-02,2.99219
2.37E-02,3.80859
2.38E-02,4.63281
2.38E-02,4.96875
2.39E-02,5.92188
2.40E-02,6.71484
2.41E-02,7.48438
2.42E-02,8.60547
2.42E-02,9.875
2.43E-02,11.8359
2.44E-02,15.6133
2.45E-02,15.9375
2.46E-02,12.1563
2.46E-02,9.76953
2.47E-02,8.5
2.48E-02,7.44531
2.49E-02,6.63281
2.50E-02,5.76172
2.50E-02,4.82422
2.51E-02,3.82422
2.52E-02,2.54688
2.53E-02,2.03906
2.54E-02,2.71875
2.54E-02,2.84766
2.55E-02,3.98047
2.56E-02,4.99609
2.57E-02,5.81641
2.58E-02,6.5
2.58E-02,7.26953
2.59E-02,8.01563
2.60E-02,9.31641
2.61E-02,11.1406
2.62E-02,14.582
2.62E-02,14.9102
2.63E-02,11.625
2.64E-02,9.48438
2.65E-02,8.11719
2.66E-02,7.07031
2.66E-02,6.02734
2.67E-02,5.30469
2.68E-02,4.46094
2.69E-02,3.77734
2.70E-02,3.01563
2.70E-02,2.29688
2.71E-02,2.78906
2.72E-02,3.07422
2.73E-02,3.83203
2.74E-02,4.60156
2.74E-02,5.25391
2.75E-02,6
2.76E-02,6.79688
2.77E-02,7.58594
2.78E-02,8.78125
2.78E-02,10.5391
2.79E-02,14.0039
2.80E-02,14.1797
2.81E-02,10.7031
2.82E-02,8.92969
2.82E-02,7.58984
2.83E-02,6.77344
2.84E-02,5.69531
2.85E-02,5.28906
2.86E-02,4.40234
2.86E-02,3.37109
2.87E-02,2.28125
2.88E-02,1.91797
2.89E-02,2.50781
2.90E-02,2.53125
2.90E-02,3.67188
2.91E-02,4.48438
2.92E-02,5.08203
2.93E-02,5.74219
2.94E-02,6.46094
2.94E-02,7.37891
2.95E-02,8.38281
2.96E-02,10.1016
2.97E-02,13.2969
2.98E-02,13.5391
2.98E-02,10.3594
2.99E-02,8.58203
3.00E-02,7.46875
3.01E-02,6.38281
3.02E-02,5.48047
3.02E-02,4.76953
3.03E-02,4.12109
3.04E-02,3.33594
3.05E-02,2.71875
3.06E-02,1.90625
3.06E-02,2.44141
3.07E-02,2.51953
3.08E-02,3.51563
3.09E-02,4.08594
3.10E-02,4.69141
3.10E-02,5.54688
3.11E-02,6.21875
3.12E-02,7.07813
3.13E-02,8.00781
3.14E-02,9.67969
3.14E-02,12.7695
3.15E-02,12.6094
3.16E-02,9.89453
3.17E-02,8.23828
3.18E-02,7.09375
3.18E-02,6.35156
3.19E-02,5.39844
3.20E-02,4.66797
3.21E-02,4.04688
3.22E-02,3.14844
3.22E-02,2.20703
3.23E-02,2.0625
3.24E-02,2.41797
3.25E-02,2.28516
3.26E-02,3.18359
3.26E-02,4.21875
3.27E-02,4.92969
3.28E-02,5.53125
3.29E-02,5.92969
3.30E-02,6.84375
3.30E-02,7.64063
3.31E-02,9.25781
3.32E-02,12.125
3.33E-02,12.2383
3.34E-02,9.29688
3.34E-02,7.80859
3.35E-02,6.82031
3.36E-02,6.04688
3.37E-02,5.20703
3.38E-02,4.43359
3.38E-02,3.71484
3.39E-02,3.19531
3.40E-02,2.31641
3.41E-02,1.82422
3.42E-02,2.33984
3.42E-02,2.36719
3.43E-02,2.91797
3.44E-02,3.88281
3.45E-02,4.52344
3.46E-02,5.24219
3.46E-02,5.6875
3.47E-02,6.52734
3.48E-02,7.39063
3.49E-02,8.86328
3.50E-02,11.6953
3.50E-02,11.7148
3.51E-02,9.16016
3.52E-02,7.60938
3.53E-02,6.47266
3.54E-02,5.80078
3.54E-02,5.05078
3.55E-02,4.55859
3.56E-02,3.78125
3.57E-02,2.89844
3.58E-02,2.15234
3.58E-02,1.78516
3.59E-02,2.51172
3.60E-02,2.22266
3.61E-02,2.99219
3.62E-02,3.85547
3.62E-02,4.41797
3.63E-02,4.98047
3.64E-02,5.63281
3.65E-02,6.41797
3.66E-02,7.14063
3.66E-02,8.44141
3.67E-02,11.25
3.68E-02,11.2813
3.69E-02,8.72266
3.70E-02,7.33203
3.70E-02,6.25391
3.71E-02,5.71094
3.72E-02,4.74219
3.73E-02,4.10156
3.74E-02,3.48828
3.74E-02,2.76563
3.75E-02,2.08984
3.76E-02,1.91406
3.77E-02,1.67578
3.78E-02,1.37891
3.78E-02,1.48047
3.79E-02,1.71875
3.80E-02,1.52734
3.81E-02,1.20313
3.82E-02,1.19141
3.82E-02,1.16406
3.83E-02,1.1875
3.84E-02,1.13672
3.85E-02,1.04297
3.86E-02,1.08984
3.86E-02,1.24609
3.87E-02,0.984375
,
