Data/glycerin/90/t2/glycerin90_t2.CSV

Model,TBS2104
Firmware Version,v1.26.0
,
Point Format,Y
Horizontal Units,S
Horizontal Scale,0.01
Sample Interval,8.00E-05
Filter Frequency,1.00E+08
Record Length,2000
Gating,0.0% to 100.0%
Probe Attenuation,10
Vertical Units,V
Vertical Offset,0
Vertical Scale,2
Label,
TIME,CH1
-2.62E-02,2.38906
-2.61E-02,1.07891
-2.60E-02,1.12031
-2.59E-02,1.21484
-2.58E-02,1.25703
-2.58E-02,1.06758
-2.57E-02,1.14102
-2.56E-02,1.11953
-2.55E-02,1.09922
-2.54E-02,1.24219
-2.54E-02,1.20703
-2.53E-02,1.16094
-2.52E-02,1.1418
-2.51E-02,1.05195
-2.50E-02,0.920703
-2.50E-02,0.782812
-2.49E-02,0.789453
-2.48E-02,0.798047
-2.47E-02,0.930859
-2.46E-02,1.13398
-2.46E-02,1.51992
-2.45E-02,1.79609
-2.44E-02,2.35664
-2.43E-02,2.58633
-2.42E-02,2.42305
-2.42E-02,1.66641
-2.41E-02,1.31602
-2.40E-02,1.14375
-2.39E-02,1.08164
-2.38E-02,1.01406
-2.38E-02,0.936328
-2.37E-02,0.808203
-2.36E-02,0.773047
-2.35E-02,0.784375
-2.34E-02,0.775
-2.34E-02,0.913672
-2.33E-02,0.972266
-2.32E-02,1.13008
-2.31E-02,1.28398
-2.30E-02,1.24375
-2.30E-02,1.30078
-2.29E-02,1.22891
-2.28E-02,1.14531
-2.27E-02,0.9375
-2.26E-02,0.833594
-2.26E-02,0.764062
-2.25E-02,1.65469
-2.24E-02,2.32227
-2.23E-02,1.06602
-2.22E-02,1.11719
-2.22E-02,1.19062
-2.21E-02,1.27969
-2.20E-02,1.15234
-2.19E-02,1.15234
-2.18E-02,1.10898
-2.18E-02,1.15039
-2.17E-02,1.09883
-2.16E-02,1.19961
-2.15E-02,1.17344
-2.14E-02,1.11953
-2.14E-02,1.03789
-2.13E-02,0.95
-2.12E-02,0.747656
-2.11E-02,0.776562
-2.10E-02,0.905859
-2.10E-02,1.05234
-2.09E-02,1.18984
-2.08E-02,1.44062
-2.07E-02,1.73477
-2.06E-02,2.19414
-2.06E-02,2.45508
-2.05E-02,2.2582
-2.04E-02,1.58633
-2.03E-02,1.26172
-2.02E-02,1.08984
-2.02E-02,0.953906
-2.01E-02,0.897656
-2.00E-02,0.903516
-1.99E-02,0.799609
-1.98E-02,0.691016
-1.98E-02,0.754687
-1.97E-02,0.801953
-1.96E-02,0.851953
-1.95E-02,0.973437
-1.94E-02,1.1957
-1.94E-02,1.27031
-1.93E-02,1.20742
-1.92E-02,1.29336
-1.91E-02,1.28789
-1.90E-02,1.17812
-1.90E-02,1.04844
-1.89E-02,0.857031
-1.88E-02,0.779687
-1.87E-02,1.7543
-1.86E-02,2.3918
-1.86E-02,1.14453
-1.85E-02,1.04062
-1.84E-02,1.24766
-1.83E-02,1.28867
-1.82E-02,1.14805
-1.82E-02,1.22734
-1.81E-02,1.0875
-1.80E-02,1.17305
-1.79E-02,1.19258
-1.78E-02,1.20312
-1.78E-02,1.22812
-1.77E-02,1.14375
-1.76E-02,1.06719
-1.75E-02,0.998437
-1.74E-02,0.828516
-1.74E-02,0.775391
-1.73E-02,0.757812
-1.72E-02,0.979297
-1.71E-02,1.14766
-1.70E-02,1.41797
-1.70E-02,1.68437
-1.69E-02,2.13008
-1.68E-02,2.31055
-1.67E-02,2.03125
-1.66E-02,1.44492
-1.66E-02,1.39961
-1.65E-02,1.08633
-1.64E-02,0.953906
-1.63E-02,0.931641
-1.62E-02,0.803125
-1.62E-02,0.811719
-1.61E-02,0.751172
-1.60E-02,0.761719
-1.59E-02,0.786719
-1.58E-02,0.870312
-1.58E-02,0.994922
-1.57E-02,1.16133
-1.56E-02,1.26133
-1.55E-02,1.2207
-1.54E-02,1.23828
-1.54E-02,1.27148
-1.53E-02,1.12852
-1.52E-02,1.09805
-1.51E-02,0.8625
-1.50E-02,0.764453
-1.50E-02,1.74961
-1.49E-02,2.39766
-1.48E-02,1.20273
-1.47E-02,1.15781
-1.46E-02,1.21133
-1.46E-02,1.25195
-1.45E-02,1.13516
-1.44E-02,1.17617
-1.43E-02,1.17227
-1.42E-02,1.20469
-1.42E-02,1.275
-1.41E-02,1.24766
-1.40E-02,1.10937
-1.39E-02,1.15898
-1.38E-02,1.00781
-1.38E-02,0.869141
-1.37E-02,0.869531
-1.36E-02,0.804687
-1.35E-02,0.759375
-1.34E-02,0.989844
-1.34E-02,1.1668
-1.33E-02,1.36797
-1.32E-02,1.64414
-1.31E-02,2.09023
-1.30E-02,2.27383
-1.30E-02,1.94531
-1.29E-02,1.50039
-1.28E-02,1.12227
-1.27E-02,0.9625
-1.26E-02,0.872656
-1.26E-02,0.839844
-1.25E-02,0.786719
-1.24E-02,0.735156
-1.23E-02,0.691016
-1.22E-02,0.739062
-1.22E-02,0.792187
-1.21E-02,0.89375
-1.20E-02,1.00234
-1.19E-02,1.18047
-1.18E-02,1.27422
-1.18E-02,1.31289
-1.17E-02,1.31758
-1.16E-02,1.23398
-1.15E-02,1.1793
-1.14E-02,0.916797
-1.14E-02,0.878516
-1.13E-02,0.741016
-1.12E-02,1.87422
-1.11E-02,2.46055
-1.10E-02,1.13594
-1.10E-02,1.03828
-1.09E-02,1.21016
-1.08E-02,1.24453
-1.07E-02,1.22344
-1.06E-02,1.17305
-1.06E-02,1.15312
-1.05E-02,1.19531
-1.04E-02,1.19336
-1.03E-02,1.12344
-1.02E-02,1.17031
-1.02E-02,1.22891
-1.01E-02,1.06797
-1.00E-02,0.964062
-9.92E-03,0.827344
-9.84E-03,0.736328
-9.76E-03,0.829687
-9.68E-03,0.857031
-9.60E-03,1.02305
-9.52E-03,1.25547
-9.44E-03,1.63477
-9.36E-03,2.00195
-9.28E-03,2.19805
-9.20E-03,1.96602
-9.12E-03,1.42266
-9.04E-03,1.18906
-8.96E-03,1.02187
-8.88E-03,1.01953
-8.80E-03,0.882031
-8.72E-03,0.774219
-8.64E-03,0.796094
-8.56E-03,0.696484
-8.48E-03,0.725
-8.40E-03,0.750781
-8.32E-03,0.873047
-8.24E-03,1.06641
-8.16E-03,1.13867
-8.08E-03,1.23242
-8.00E-03,1.26836
-7.92E-03,1.35078
-7.84E-03,1.31797
-7.76E-03,1.19492
-7.68E-03,1.0707
-7.60E-03,0.866016
-7.52E-03,0.798437
-7.44E-03,1.89414
-7.36E-03,2.21445
-7.28E-03,1.29453
-7.20E-03,1.1082
-7.12E-03,1.20547
-7.04E-03,1.29023
-6.96E-03,1.41367
-6.88E-03,1.50156
-6.80E-03,1.48672
-6.72E-03,1.46719
-6.64E-03,1.31602
-6.56E-03,1.14844
-6.48E-03,1.05391
-6.40E-03,0.988672
-6.32E-03,0.907031
-6.24E-03,0.991406
-6.16E-03,0.951172
-6.08E-03,1.02734
-6.00E-03,0.996875
-5.92E-03,1.06133
-5.84E-03,0.966016
-5.76E-03,0.897266
-5.68E-03,0.898437
-5.60E-03,0.746875
-5.52E-03,0.730469
-5.44E-03,0.775391
-5.36E-03,0.735547
-5.28E-03,0.732031
-5.20E-03,0.780859
-5.12E-03,0.752734
-5.04E-03,0.697266
-4.96E-03,0.688281
-4.88E-03,0.703516
-4.80E-03,0.724609
-4.72E-03,0.701172
-4.64E-03,0.713281
-4.56E-03,0.708984
-4.48E-03,0.755859
-4.40E-03,0.803906
-4.32E-03,0.759766
-4.24E-03,0.816016
-4.16E-03,0.726562
-4.08E-03,0.723828
-4.00E-03,0.791016
-3.92E-03,0.766406
-3.84E-03,0.737891
-3.76E-03,0.738281
-3.68E-03,0.726562
-3.60E-03,0.770312
-3.52E-03,0.759766
-3.44E-03,0.764844
-3.36E-03,0.755078
-3.28E-03,0.780859
-3.20E-03,0.815234
-3.12E-03,0.775391
-3.04E-03,0.727734
-2.96E-03,0.833203
-2.88E-03,0.831641
-2.80E-03,0.8
-2.72E-03,0.814453
-2.64E-03,0.726953
-2.56E-03,0.786328
-2.48E-03,0.744922
-2.40E-03,0.751953
-2.32E-03,0.739453
-2.24E-03,0.701953
-2.16E-03,0.746484
-2.08E-03,0.785547
-2.00E-03,0.747656
-1.92E-03,0.791406
-1.84E-03,0.769922
-1.76E-03,0.78125
-1.68E-03,0.808203
-1.60E-03,0.839844
-1.52E-03,0.802344
-1.44E-03,0.743359
-1.36E-03,0.808203
-1.28E-03,0.771484
-1.20E-03,0.782812
-1.12E-03,0.818359
-1.04E-03,0.803516
-9.60E-04,0.73125
-8.80E-04,0.756641
-8.00E-04,0.784375
-7.20E-04,0.725
-6.40E-04,0.754687
-5.60E-04,0.776562
-4.80E-04,0.766797
-4.00E-04,0.785547
-3.20E-04,0.801953
-2.40E-04,9.04258
-1.60E-04,6.06367
-8.00E-05,4.68984
8.13E-17,3.90352
8.00E-05,3.49531
1.60E-04,2.92227
2.40E-04,2.62187
3.20E-04,2.14102
4.00E-04,1.84414
4.80E-04,1.60195
5.60E-04,1.36719
6.40E-04,1.08867
7.20E-04,1.08281
8.00E-04,1.01055
8.80E-04,1.01875
9.60E-04,1.06953
1.04E-03,1.18008
1.12E-03,1.16875
1.20E-03,1.09336
1.28E-03,0.927734
1.36E-03,0.994922
1.44E-03,0.796484
1.52E-03,0.797266
1.60E-03,1.83516
1.68E-03,0.891016
1.76E-03,0.89375
1.84E-03,0.911328
1.92E-03,0.942578
2.00E-03,0.918359
2.08E-03,0.930078
2.16E-03,1.06719
2.24E-03,1.01172
2.32E-03,1.01016
2.40E-03,1.13359
2.48E-03,1.32812
2.56E-03,1.45586
2.64E-03,1.63477
2.72E-03,1.92773
2.80E-03,2.30898
2.88E-03,2.78828
2.96E-03,3.24766
3.04E-03,3.70039
3.12E-03,4.28008
3.20E-03,4.76797
3.28E-03,5.56133
3.36E-03,7.1293
3.44E-03,8.32852
3.52E-03,7.0043
3.60E-03,5.32266
3.68E-03,4.40586
3.76E-03,3.87773
3.84E-03,3.29961
3.92E-03,2.8668
4.00E-03,2.57461
4.08E-03,2.175
4.16E-03,1.83203
4.24E-03,1.66211
4.32E-03,1.42852
4.40E-03,1.18672
4.48E-03,1.08945
4.56E-03,0.988672
4.64E-03,0.942969
4.72E-03,0.96875
4.80E-03,0.864062
4.88E-03,0.803906
4.96E-03,0.822656
5.04E-03,0.74375
5.12E-03,0.758203
5.20E-03,0.758984
5.28E-03,0.775781
5.36E-03,1.76914
5.44E-03,1.27773
5.52E-03,1.4625
5.60E-03,1.36328
5.68E-03,1.26328
5.76E-03,1.27109
5.84E-03,1.10195
5.92E-03,1.0668
6.00E-03,0.955859
6.08E-03,0.881641
6.16E-03,0.779687
6.24E-03,0.866406
6.32E-03,0.830859
6.40E-03,0.933594
6.48E-03,1.10508
6.56E-03,1.48711
6.64E-03,1.95469
6.72E-03,2.45625
6.80E-03,2.90039
6.88E-03,3.45117
6.96E-03,4.0332
7.04E-03,4.75352
7.12E-03,5.80391
7.20E-03,7.21016
7.28E-03,7.59375
7.36E-03,5.59961
7.44E-03,4.33711
7.52E-03,3.80742
7.60E-03,3.23281
7.68E-03,2.89258
7.76E-03,2.64336
7.84E-03,2.31484
7.92E-03,2.04023
8.00E-03,1.73242
8.08E-03,1.35391
8.16E-03,1.30195
8.24E-03,1.06289
8.32E-03,0.9625
8.40E-03,0.80625
8.48E-03,0.754687
8.56E-03,0.806641
8.64E-03,0.757812
8.72E-03,0.749609
8.80E-03,0.717187
8.88E-03,0.691406
8.96E-03,0.776172
9.04E-03,0.717578
9.12E-03,1.90117
9.20E-03,0.982422
9.28E-03,0.739062
9.36E-03,0.871094
9.44E-03,0.884766
9.52E-03,0.876953
9.60E-03,0.810547
9.68E-03,0.905469
9.76E-03,0.926562
9.84E-03,0.891406
9.92E-03,0.957031
1.00E-02,0.953516
1.01E-02,1.10078
1.02E-02,1.425
1.02E-02,1.61875
1.03E-02,2.03906
1.04E-02,2.28711
1.05E-02,2.78555
1.06E-02,3.39805
1.06E-02,3.76484
1.07E-02,4.24453
1.08E-02,4.94375
1.09E-02,6.33516
1.10E-02,7.49648
1.10E-02,6.78398
1.11E-02,4.80977
1.12E-02,4.03047
1.13E-02,3.38242
1.14E-02,3.00352
1.14E-02,2.63359
1.15E-02,2.22891
1.16E-02,2.00195
1.17E-02,1.69336
1.18E-02,1.43281
1.18E-02,1.22812
1.19E-02,1.10898
1.20E-02,1.01367
1.21E-02,0.973047
1.22E-02,1.15039
1.22E-02,1.0918
1.23E-02,1.18164
1.24E-02,1.10703
1.25E-02,1.10937
1.26E-02,0.901562
1.26E-02,0.848047
1.27E-02,0.738672
1.28E-02,0.902734
1.29E-02,1.72422
1.30E-02,1.09687
1.30E-02,0.986328
1.31E-02,1.13125
1.32E-02,1.04609
1.33E-02,1.01914
1.34E-02,0.964453
1.34E-02,0.903906
1.35E-02,0.901562
1.36E-02,0.778125
1.37E-02,0.819922
1.38E-02,0.740625
1.38E-02,0.73125
1.39E-02,0.862891
1.40E-02,1.13008
1.41E-02,1.43203
1.42E-02,1.8543
1.42E-02,2.28828
1.43E-02,2.73164
1.44E-02,3.3375
1.45E-02,3.78984
1.46E-02,4.33359
1.46E-02,5.56133
1.47E-02,6.80703
1.48E-02,6.72148
1.49E-02,5.00273
1.50E-02,3.88398
1.50E-02,3.22734
1.51E-02,2.82461
1.52E-02,2.47305
1.53E-02,2.19961
1.54E-02,1.92109
1.54E-02,1.5832
1.55E-02,1.48047
1.56E-02,1.29141
1.57E-02,1.17852
1.58E-02,1.01641
1.58E-02,0.917578
1.59E-02,0.888281
1.60E-02,0.921094
1.61E-02,0.918359
1.62E-02,0.846484
1.62E-02,0.849219
1.63E-02,0.780859
1.64E-02,0.766016
1.65E-02,0.779687
1.66E-02,0.767578
1.66E-02,1.72461
1.67E-02,0.944922
1.68E-02,0.910547
1.69E-02,0.8875
1.70E-02,0.778516
1.70E-02,0.826562
1.71E-02,0.832812
1.72E-02,0.759766
1.73E-02,0.708984
1.74E-02,0.742969
1.74E-02,0.80625
1.75E-02,0.845312
1.76E-02,0.958984
1.77E-02,1.13242
1.78E-02,1.37383
1.78E-02,1.66602
1.79E-02,2.01328
1.80E-02,2.53281
1.81E-02,3.0043
1.82E-02,3.23516
1.82E-02,3.99922
1.83E-02,4.5375
1.84E-02,5.65898
1.85E-02,6.75859
1.86E-02,6.32031
1.86E-02,4.56094
1.87E-02,3.67695
1.88E-02,3.24844
1.89E-02,2.81836
1.90E-02,2.46406
1.90E-02,2.14609
1.91E-02,1.79648
1.92E-02,1.61445
1.93E-02,1.41211
1.94E-02,1.09961
1.94E-02,0.961719
1.95E-02,0.908203
1.96E-02,0.892969
1.97E-02,0.9625
1.98E-02,0.998047
1.98E-02,0.983984
1.99E-02,0.995703
2.00E-02,1.07305
2.01E-02,0.879297
2.02E-02,0.818359
2.02E-02,0.810547
2.03E-02,0.950781
2.04E-02,1.80781
2.05E-02,1.0418
2.06E-02,0.936328
2.06E-02,1.11016
2.07E-02,1.14141
2.08E-02,1.02422
2.09E-02,0.894531
2.10E-02,0.827734
2.10E-02,0.808984
2.11E-02,0.821094
2.12E-02,0.747656
2.13E-02,0.696484
2.14E-02,0.733984
2.14E-02,0.846094
2.15E-02,1.01484
2.16E-02,1.31523
2.17E-02,1.75
2.18E-02,1.99414
2.18E-02,2.64219
2.19E-02,3.08477
2.20E-02,3.42422
2.21E-02,4.02305
2.22E-02,5.23711
2.22E-02,6.23047
2.23E-02,6.06289
2.24E-02,4.6043
2.25E-02,3.63008
2.26E-02,3.05547
2.26E-02,2.63437
2.27E-02,2.36133
2.28E-02,2.07266
2.29E-02,1.79297
2.30E-02,1.46836
2.30E-02,1.32617
2.31E-02,1.20273
2.32E-02,1.05117
2.33E-02,1.00781
2.34E-02,0.938672
2.34E-02,0.98125
2.35E-02,0.970312
2.36E-02,0.937109
2.37E-02,0.917969
2.38E-02,0.858594
2.38E-02,0.773437
2.39E-02,0.724609
2.40E-02,0.719141
2.41E-02,0.715234
2.42E-02,1.66172
2.42E-02,0.925
2.43E-02,0.894922
2.44E-02,0.934375
2.45E-02,0.867969
2.46E-02,0.826953
2.46E-02,0.878125
2.47E-02,0.846094
2.48E-02,0.733203
2.49E-02,0.717187
2.50E-02,0.767969
2.50E-02,0.810156
2.51E-02,0.776953
2.52E-02,0.957031
2.53E-02,1.16094
2.54E-02,1.39336
2.54E-02,1.78906
2.55E-02,2.26016
2.56E-02,2.56641
2.57E-02,2.95742
2.58E-02,3.58633
2.58E-02,4.14844
2.59E-02,5.19766
2.60E-02,6.11562
2.61E-02,5.77734
2.62E-02,4.26602
2.62E-02,3.32344
2.63E-02,2.86211
2.64E-02,2.61523
2.65E-02,2.20547
2.66E-02,1.91328
2.66E-02,1.65742
2.67E-02,1.38945
2.68E-02,1.20039
2.69E-02,1.08359
2.70E-02,0.951562
2.70E-02,1.00352
2.71E-02,0.971484
2.72E-02,1.05312
2.73E-02,1.03945
2.74E-02,1.00703
2.74E-02,1.06289
2.75E-02,1.07969
2.76E-02,0.972656
2.77E-02,0.786328
2.78E-02,0.742187
2.78E-02,1.04687
2.79E-02,1.82383
2.80E-02,1.05781
2.81E-02,0.984766
2.82E-02,1.03828
2.82E-02,1.06953
2.83E-02,0.991406
2.84E-02,0.878906
2.85E-02,0.885156
2.86E-02,0.873437
2.86E-02,0.887109
2.87E-02,0.766406
2.88E-02,0.808984
2.89E-02,0.741016
2.90E-02,0.803906
2.90E-02,0.85
2.91E-02,1.10781
2.92E-02,1.52422
2.93E-02,1.79258
2.94E-02,2.32773
2.94E-02,2.7918
2.95E-02,3.19023
2.96E-02,3.74414
2.97E-02,4.91172
2.98E-02,5.74648
2.98E-02,5.52031
2.99E-02,4.22734
3.00E-02,3.3668
3.01E-02,2.84883
3.02E-02,2.36836
3.02E-02,2.16523
3.03E-02,1.8957
3.04E-02,1.52539
3.05E-02,1.35078
3.06E-02,1.21602
3.06E-02,1.0293
3.07E-02,0.959375
3.08E-02,0.887891
3.09E-02,0.987109
3.10E-02,0.981641
3.10E-02,1.03633
3.11E-02,1.08086
3.12E-02,0.967969
3.13E-02,0.789844
3.14E-02,0.871094
3.14E-02,0.744531
3.15E-02,0.708984
3.16E-02,0.775781
3.17E-02,1.72539
3.18E-02,0.872266
3.18E-02,0.933984
3.19E-02,0.992969
3.20E-02,0.913672
3.21E-02,0.833203
3.22E-02,0.835156
3.22E-02,0.792578
3.23E-02,0.794141
3.24E-02,0.727734
3.25E-02,0.769141
3.26E-02,0.751562
3.26E-02,0.807031
3.27E-02,0.871484
3.28E-02,0.953125
3.29E-02,1.29648
3.30E-02,1.56602
3.30E-02,2.03906
3.31E-02,2.3375
3.32E-02,2.7457
3.33E-02,3.3707
3.34E-02,3.79141
3.34E-02,4.66562
3.35E-02,5.61992
3.36E-02,5.34922
3.37E-02,3.91445
3.38E-02,3.02305
3.38E-02,2.51719
3.39E-02,2.30508
3.40E-02,1.99648
3.41E-02,1.68633
3.42E-02,1.46328
3.42E-02,1.25156
3.43E-02,1.07031
3.44E-02,1.02383
3.45E-02,0.953516
3.46E-02,0.975781
3.46E-02,1.01641
3.47E-02,1.05391
3.48E-02,0.998828
3.49E-02,1.01445
3.50E-02,1.0418
3.50E-02,1.1168
3.51E-02,0.913281
3.52E-02,0.763281
3.53E-02,0.824219
3.54E-02,0.990625
3.54E-02,1.93906
3.55E-02,1.06836
3.56E-02,0.891406
3.57E-02,0.980859
3.58E-02,1.08594
3.58E-02,1.01055
3.59E-02,0.953906
3.60E-02,0.84375
3.61E-02,0.903516
3.62E-02,0.927734
3.62E-02,0.779297
3.63E-02,0.786719
3.64E-02,0.691797
3.65E-02,0.766797
3.66E-02,0.938281
3.66E-02,1.08164
3.67E-02,1.35898
3.68E-02,1.68828
3.69E-02,2.12422
3.70E-02,2.50391
3.70E-02,2.88398
3.71E-02,3.46406
3.72E-02,4.47266
3.73E-02,5.36445
3.74E-02,5.04883
3.74E-02,3.76719
3.75E-02,3.14531
3.76E-02,2.60352
3.77E-02,2.25156
3.78E-02,1.95273
3.78E-02,1.69023
3.79E-02,1.45547
3.80E-02,1.31992
3.81E-02,1.18789
3.82E-02,1.14727
3.82E-02,0.976562
3.83E-02,0.953516
3.84E-02,1.00664
3.85E-02,0.985547
3.86E-02,0.962109
3.86E-02,1.16914
3.87E-02,0.999609
3.88E-02,0.926562
3.89E-02,0.874219
3.90E-02,0.853125
3.90E-02,0.717187
3.91E-02,0.832812
3.92E-02,1.83594
3.93E-02,0.892969
3.94E-02,0.996094
3.94E-02,1.10859
3.95E-02,0.944531
3.96E-02,0.921484
3.97E-02,0.885937
3.98E-02,0.89375
3.98E-02,0.857031
3.99E-02,0.787891
4.00E-02,0.795703
4.01E-02,0.866797
4.02E-02,0.739062
4.02E-02,0.839844
4.03E-02,0.975781
4.04E-02,1.04531
4.05E-02,1.38281
4.06E-02,1.76953
4.06E-02,2.10352
4.07E-02,2.50469
4.08E-02,3.02969
4.09E-02,3.52344
4.10E-02,4.30078
4.10E-02,5.14453
4.11E-02,4.79062
4.12E-02,3.56836
4.13E-02,2.76797
4.14E-02,2.31523
4.14E-02,2.0668
4.15E-02,1.77344
4.16E-02,1.52266
4.17E-02,1.3125
4.18E-02,1.1293
4.18E-02,0.996094
4.19E-02,0.982812
4.20E-02,0.858984
4.21E-02,0.938672
4.22E-02,0.927344
4.22E-02,0.982031
4.23E-02,1.10547
4.24E-02,1.06758
4.25E-02,1.11289
4.26E-02,1.17812
4.26E-02,0.951953
4.27E-02,0.851953
4.28E-02,0.815234
4.29E-02,1.07656
4.30E-02,2.06328
4.30E-02,0.992969
4.31E-02,0.991016
4.32E-02,1.04258
4.33E-02,1.21914
4.34E-02,1.13555
4.34E-02,1.05352
4.35E-02,0.927734
4.36E-02,0.911719
4.37E-02,0.970703
4.38E-02,0.996484
4.38E-02,0.830859
4.39E-02,0.808594
4.40E-02,0.776562
4.41E-02,0.798437
4.42E-02,0.880859
4.42E-02,1.20937
4.43E-02,1.4793
4.44E-02,1.88242
4.45E-02,2.21328
4.46E-02,2.66914
4.46E-02,3.23633
4.47E-02,4.16367
4.48E-02,4.95625
4.49E-02,4.63164
4.50E-02,3.51055
4.50E-02,2.81367
4.51E-02,2.41797
4.52E-02,2.0082
4.53E-02,1.76914
4.54E-02,1.49961
4.54E-02,1.35937
4.55E-02,1.11445
4.56E-02,1.05859
4.57E-02,0.856641
4.58E-02,0.920703
4.58E-02,0.979687
4.59E-02,0.994922
4.60E-02,1.03711
4.61E-02,1.18594
4.62E-02,1.20391
4.62E-02,1.0418
4.63E-02,0.948047
4.64E-02,0.867969
4.65E-02,0.829297
4.66E-02,0.679687
4.66E-02,0.813672
4.67E-02,1.92383
4.68E-02,0.873828
4.69E-02,1.0457
4.70E-02,1.12109
4.70E-02,1.06172
4.71E-02,0.917578
4.72E-02,0.917969
4.73E-02,0.863672
4.74E-02,0.866406
4.74E-02,0.801953
4.75E-02,0.783594
4.76E-02,0.841406
4.77E-02,0.791406
4.78E-02,0.759766
4.78E-02,0.813672
4.79E-02,0.897266
4.80E-02,1.2957
4.81E-02,1.55
4.82E-02,1.93789
4.82E-02,2.35742
4.83E-02,2.8293
4.84E-02,3.17734
4.85E-02,3.89414
4.86E-02,4.68633
4.86E-02,4.49336
4.87E-02,3.31562
4.88E-02,2.53125
4.89E-02,2.11328
4.90E-02,1.75273
4.90E-02,1.56406
4.91E-02,1.40195
4.92E-02,1.21523
4.93E-02,1.05664
4.94E-02,0.948828
4.94E-02,0.867969
4.95E-02,0.903125
4.96E-02,0.853516
4.97E-02,0.932031
4.98E-02,1.07695
4.98E-02,1.1293
4.99E-02,1.07109
5.00E-02,1.15273
5.01E-02,1.1375
5.02E-02,0.962109
5.02E-02,0.751953
5.03E-02,0.74375
5.04E-02,1.08047
5.05E-02,2.04258
5.06E-02,0.996094
5.06E-02,0.921875
5.07E-02,1.05859
5.08E-02,1.13125
5.09E-02,1.12109
5.10E-02,0.996484
5.10E-02,0.8625
5.11E-02,0.939453
5.12E-02,0.932031
5.13E-02,0.891797
5.14E-02,0.897266
5.14E-02,0.797656
5.15E-02,0.757031
5.16E-02,0.76875
5.17E-02,0.904297
5.18E-02,1.0707
5.18E-02,1.32187
5.19E-02,1.74297
5.20E-02,2.07305
5.21E-02,2.36445
5.22E-02,2.95078
5.22E-02,3.92383
5.23E-02,4.59492
5.24E-02,4.35625
5.25E-02,3.16953
5.26E-02,2.63437
5.26E-02,2.18516
5.27E-02,1.81523
5.28E-02,1.61562
5.29E-02,1.49102
5.30E-02,1.24141
5.30E-02,1.05898
5.31E-02,0.944141
5.32E-02,0.945312
5.33E-02,0.889062
5.34E-02,0.902734
5.34E-02,1.0082
5.35E-02,1.0918
5.36E-02,1.14062
5.37E-02,1.17617
5.38E-02,1.0207
5.38E-02,1.04375
5.39E-02,0.937109
5.40E-02,0.813281
5.41E-02,0.748828
5.42E-02,0.997656
5.42E-02,1.93477
5.43E-02,0.914062
5.44E-02,1.05781
5.45E-02,1.10703
5.46E-02,1.01133
5.46E-02,1.01758
5.47E-02,0.985547
5.48E-02,0.973828
5.49E-02,0.913672
5.50E-02,0.910156
5.50E-02,0.977734
5.51E-02,0.877734
5.52E-02,0.8625
5.53E-02,0.808984
5.54E-02,0.807031
5.54E-02,0.907812
5.55E-02,1.16602
5.56E-02,1.47695
5.57E-02,1.80039
5.58E-02,2.1625
5.58E-02,2.57812
5.59E-02,2.93984
5.60E-02,3.68711
5.61E-02,4.31875
5.62E-02,4.13398
5.62E-02,3.06836
5.63E-02,2.275
5.64E-02,1.8793
5.65E-02,1.59805
5.66E-02,1.55234
5.66E-02,1.34961
5.67E-02,1.1043
5.68E-02,1.1332
5.69E-02,0.876562
5.70E-02,0.898828
5.70E-02,0.949609
5.71E-02,0.934375
5.72E-02,1.02695
5.73E-02,1.11445
5.74E-02,1.19375
5.74E-02,1.16602
5.75E-02,1.19375
5.76E-02,1.03945
5.77E-02,0.961719
5.78E-02,0.786328
5.78E-02,0.754297
5.79E-02,1.14648
5.80E-02,2.06992
5.81E-02,0.977734
5.82E-02,1.01406
5.82E-02,1.01484
5.83E-02,1.14062
5.84E-02,1.07344
5.85E-02,1.05703
5.86E-02,0.929687
5.86E-02,0.982812
5.87E-02,1.02422
5.88E-02,0.971094
5.89E-02,0.9125
5.90E-02,0.841797
5.90E-02,0.74375
5.91E-02,0.774609
5.92E-02,0.811328
5.93E-02,0.86875
5.94E-02,1.15039
5.94E-02,1.52422
5.95E-02,1.9207
5.96E-02,2.29805
5.97E-02,2.74687
5.98E-02,3.59961
5.98E-02,4.22734
5.99E-02,3.98164
6.00E-02,2.89297
6.01E-02,2.33281
6.02E-02,2.06484
6.02E-02,1.67422
6.03E-02,1.45273
6.04E-02,1.28047
6.05E-02,1.17031
6.06E-02,0.95
6.06E-02,0.801953
6.07E-02,0.885547
6.08E-02,0.899609
6.09E-02,0.93125
6.10E-02,0.992969
6.10E-02,1.13047
6.11E-02,1.15742
6.12E-02,1.18008
6.13E-02,1.01289
6.14E-02,1.00312
6.14E-02,0.919531
6.15E-02,0.813281
6.16E-02,0.691797
6.17E-02,0.994531
6.18E-02,2.04687
6.18E-02,0.879297
6.19E-02,1.07109
6.20E-02,1.17773
6.21E-02,1.16328
6.22E-02,1.04687
6.22E-02,0.938281
6.23E-02,0.940625
6.24E-02,0.880469
6.25E-02,0.952344
6.26E-02,0.879297
6.26E-02,0.874219
6.27E-02,0.776562
6.28E-02,0.778906
6.29E-02,0.721875
6.30E-02,0.841406
6.30E-02,1.06836
6.31E-02,1.3457
6.32E-02,1.55234
6.33E-02,2.02148
6.34E-02,2.3418
